03 Augment data
…
# View changes
data_treatment |>
  select(survival_time,
         survival_status,
         treatment_group)

# A tibble: 81 × 3
   survival_time survival_status treatment_group    
   <chr>                   <dbl> <chr>              
 1 Good                        0 Chemo and Radiation
 2 Decent                      0 Chemo Only         
 3 Good                        0 Chemo and Radiation
 4 Decent                      0 Data Missing       
 5 Decent                      0 Chemo and Radiation
 6 Decent                      0 Chemo and Radiation
 7 Great                       0 Chemo and Radiation
 8 Decent                      0 Chemo and Radiation
 9 Good                        1 Chemo and Radiation
10 Great                       1 Chemo and Radiation
# ℹ 71 more rows
…
Only transcripts with at least 6 samples in each state should are continued with

Transcripts are required to have a state-average fold change larger than 3 between the two states

Perform test-t between values in each state, do false discovery rate correction and keep only transcript with q > 0.01

Get expression data from all data

expression_data <- data_treatment |> 
  select(1, 33:ncol(data_treatment))

# Print expression_data
expression_data

# A tibble: 81 × 31,641
   sample_id A1BG_NM_130786 A1CF_NM_014576 A1CF_NM_138932 A1CF_NM_138933
   <chr>              <dbl>          <dbl>          <dbl>          <dbl>
 1 S00022             14.1         0.0104        0.000402       0       
 2 S00035              5.47        0.00510       0.000422       0       
 3 S00050              3.70        0.00279       0.000231       0       
 4 S00213              5.69        0.00199       0.000331       0.000002
 5 S00356              4.90        0             0              0       
 6 S00472              6.66        0             0              0       
 7 S00501              4.99        0             0              0       
 8 S00825              6.23        0             0              0       
 9 S00827              4.15        0.00241       0.0002         0       
10 S00829              2.40        0.00190       0.000314       0.000002
# ℹ 71 more rows
# ℹ 31,636 more variables: A1CF_NM_001198818 <dbl>, A1CF_NM_001198820 <dbl>,
#   A1CF_NM_001198819 <dbl>, A2LD1_NM_001195087 <dbl>, A2LD1_NM_033110 <dbl>,
#   A2M_NM_000014 <dbl>, A2ML1_NM_144670 <dbl>, A4GALT_NM_017436 <dbl>,
#   A4GNT_NM_016161 <dbl>, AAAS_NM_015665 <dbl>, AAAS_NM_001173466 <dbl>,
#   AACS_NM_023928 <dbl>, AADAC_NM_001086 <dbl>, AADACL2_NM_207365 <dbl>,
#   AADACL3_NM_001103169 <dbl>, AADACL3_NM_001103170 <dbl>, …
Log transform and transpose data to have transcript per row

expr_log_trans <- expression_data |>
  group_by(sample_id) |>
  pivot_longer(-sample_id,
              names_to = "transcript_id",
              values_to = "expression_value") |>
  mutate(expression_value = log2(1 + expression_value)) |>
  pivot_wider(names_from = sample_id,
              values_from = expression_value) |>
  ungroup()

expr_log_trans

# A tibble: 31,640 × 82
   transcript_id      S00022  S00035  S00050  S00213 S00356 S00472 S00501 S00825
   <chr>               <dbl>   <dbl>   <dbl>   <dbl>  <dbl>  <dbl>  <dbl>  <dbl>
 1 A1BG_NM_130786    3.91e+0 2.69e+0 2.23e+0 2.74e+0  2.56    2.94  2.58   2.85 
 2 A1CF_NM_014576    1.49e-2 7.34e-3 4.01e-3 2.87e-3  0       0     0      0    
 3 A1CF_NM_138932    5.80e-4 6.09e-4 3.33e-4 4.77e-4  0       0     0      0    
 4 A1CF_NM_138933    0       0       0       2.89e-6  0       0     0      0    
 5 A1CF_NM_001198818 0       0       0       2.89e-6  0       0     0      0    
 6 A1CF_NM_001198820 0       0       0       0        0       0     0      0    
 7 A1CF_NM_001198819 0       0       0       0        0       0     0      0    
 8 A2LD1_NM_0011950… 8.98e-1 1.11e+0 1.21e+0 9.95e-1  1.25    1.03  1.82   1.78 
 9 A2LD1_NM_033110   5.33e-1 3.18e-1 3.75e+0 2.64e-1  0.122   1.20  0.777  0.557
10 A2M_NM_000014     4.86e+0 5.35e+0 5.55e+0 6.45e+0  6.99    5.74  6.70   8.13 
# ℹ 31,630 more rows
# ℹ 73 more variables: S00827 <dbl>, S00829 <dbl>, S00830 <dbl>, S00831 <dbl>,
#   S00832 <dbl>, S00836 <dbl>, S00837 <dbl>, S00838 <dbl>, S01242 <dbl>,
#   S01248 <dbl>, S01297 <dbl>, S01366 <dbl>, S01453 <dbl>, S01494 <dbl>,
#   S01512 <dbl>, S01524 <dbl>, S01542 <dbl>, S01556 <dbl>, S01563 <dbl>,
#   S01578 <dbl>, S01698 <dbl>, S01728 <dbl>, S01792 <dbl>, S01861 <dbl>,
#   S01864 <dbl>, S01873 <dbl>, S02065 <dbl>, S02093 <dbl>, S02120 <dbl>, …
…
# Go to long format
clust_data_long <- clust_data |>
  pivot_longer(cols=-c(transcript_id, cluster_int),
               names_to = 'sample_id',
               values_to = 'expression_value') |>
  drop_na()

clust_data_long

# A tibble: 2,549,070 × 4
   transcript_id  cluster_int sample_id expression_value
   <chr>                <int> <chr>                <dbl>
 1 A1BG_NM_130786           2 S00022                3.91
 2 A1BG_NM_130786           2 S00035                2.69
 3 A1BG_NM_130786           2 S00050                2.23
 4 A1BG_NM_130786           2 S00213                2.74
 5 A1BG_NM_130786           2 S00356                2.56
 6 A1BG_NM_130786           2 S00472                2.94
 7 A1BG_NM_130786           2 S00501                2.58
 8 A1BG_NM_130786           2 S00825                2.85
 9 A1BG_NM_130786           2 S00827                2.36
10 A1BG_NM_130786           2 S00830                2.62
# ℹ 2,549,060 more rows
…
hc_spec <- hier_clust(
  num_clusters = 4,
  linkage_method = "ward.D"
)

hc_spec_fit <- hc_spec |>
  fit(~., data = hc_data)

assigned_clusters <- extract_cluster_assignment(hc_spec_fit) |>
  pluck(".cluster")

assigned_clusters |>
  as_tibble()

# A tibble: 81 × 1
   value    
   <fct>    
 1 Cluster_1
 2 Cluster_2
 3 Cluster_1
 4 Cluster_3
 5 Cluster_3
 6 Cluster_3
 7 Cluster_3
 8 Cluster_3
 9 Cluster_1
10 Cluster_4
# ℹ 71 more rows
…
