06 - Create heatmap analysis
…
library('ggdendro')
library('dendextend')
library('plotly')
library('tidyverse')
library("here")
source(here("R/99_proj_func.R"))

Load selected transcript data

select_transcript_meta <- 
  read_tsv(here("data/03_dat_selected_transcript_augment.tsv"))

select_transcript_meta

# A tibble: 81 × 38
   sample_id normal  tumor snp_array_6_0_affyme…¹ rna_seq whole_genome_sequenc…²
   <chr>     <chr>   <chr> <chr>                  <chr>   <chr>                 
 1 S00022    FF tis… FF t… yes                    yes     yes                   
 2 S00035    blood   FF t… yes                    yes     yes                   
 3 S00050    FF tis… FF t… yes                    yes     yes                   
 4 S00213    <NA>    FF t… yes                    yes     no                    
 5 S00356    FF tis… FF t… yes                    yes     yes                   
 6 S00472    FF tis… FF t… yes                    yes     yes                   
 7 S00501    FF tis… FF t… yes                    yes     yes                   
 8 S00825    FF tis… FF t… yes                    yes     yes                   
 9 S00827    FF tis… FF t… yes                    yes     yes                   
10 S00829    FF tis… FF t… yes                    yes     yes                   
# ℹ 71 more rows
# ℹ abbreviated names: ¹​snp_array_6_0_affymetrix, ²​whole_genome_sequencing
# ℹ 32 more variables: whole_exome_sequencing <chr>, targeted_sequencing <chr>,
#   pathology_review_1 <chr>, pathology_review_2 <chr>,
#   pathology_review_3 <chr>, age <dbl>, sex <chr>, ethnicity <chr>,
#   stage_t <chr>, stage_n <chr>, stage_m <chr>, stage_uicc <chr>,
#   smoking_status <chr>, smoking_history_pack_years <chr>, …
…
# Setup factorered long tibble for plotting
expr_factored_long <- selected_transcript_expr_log |>
  pivot_longer(cols=-transcript_id,
             names_to = 'sample_id',
             values_to = 'expression_value') |>
  mutate(sample_id = factor(sample_id,
                            levels=levels_sample),
         transcript_id = factor(transcript_id,
                           levels=levels_transcript))

expr_factored_long

# A tibble: 405 × 3
   transcript_id  sample_id expression_value
   <fct>          <fct>                <dbl>
 1 ABP1_NM_001091 S00022               0.357
 2 ABP1_NM_001091 S00035               3.05 
 3 ABP1_NM_001091 S00050               0.487
 4 ABP1_NM_001091 S00213               2.63 
 5 ABP1_NM_001091 S00356               1.69 
 6 ABP1_NM_001091 S00472               5.12 
 7 ABP1_NM_001091 S00501               7.25 
 8 ABP1_NM_001091 S00825               3.03 
 9 ABP1_NM_001091 S00827               3.02 
10 ABP1_NM_001091 S00829               0.204
# ℹ 395 more rows
…
