07 - Logistic modelling of gene expression
…
# Unnest
expr_estimates <- expr_log_long_nested |>
  unnest(model_object_tidy) |>
  drop_na(p.value)

#
expr_estimates <- expr_estimates |>
  filter(term == "survival_status") |>
  select(gene, p.value, estimate, conf.low, conf.high) |>
  ungroup()
expr_estimates

# A tibble: 31,462 × 5
   gene               p.value estimate conf.low conf.high
   <chr>                <dbl>    <dbl>    <dbl>     <dbl>
 1 A1BG_NM_130786       0.954  0.0107  -0.355      0.377 
 2 A1CF_NM_014576       0.132  0.0227  -0.00697    0.0523
 3 A1CF_NM_138932       0.197  0.0145  -0.00768    0.0366
 4 A1CF_NM_138933       0.156  0.00953 -0.00371    0.0228
 5 A1CF_NM_001198818    0.200  0.00816 -0.00442    0.0207
 6 A2LD1_NM_001195087   0.621  0.0621  -0.187      0.311 
 7 A2LD1_NM_033110      0.985 -0.00438 -0.479      0.470 
 8 A2M_NM_000014        0.653 -0.126   -0.684      0.431 
 9 A2ML1_NM_144670      0.251 -0.0576  -0.157      0.0415
10 A4GALT_NM_017436     0.246  0.244   -0.172      0.659 
# ℹ 31,452 more rows
…
