07 - Logistic modelling of gene expression
…
# Mutate binary cluster x or not
cluster_of_interest <- "Cluster_1"
expr_log_long_clust <- expr_log_long |>
  mutate(
    cluster = case_when(
      sample_cluster == cluster_of_interest ~ 1,
      sample_cluster != cluster_of_interest ~ 0
    ),
    .after = sample_id
  ) |>
  select(!sample_cluster)

expr_log_long_clust

# A tibble: 32,400 × 5
   sample_id cluster gene                 expr_level log2_expr_level
   <chr>       <dbl> <chr>                     <dbl>           <dbl>
 1 S00022          1 ABP1_NM_001091         0.280         0.357     
 2 S00022          1 ACTL6B_NM_016188       6.12          2.83      
 3 S00022          1 ADCYAP1_NM_001099733   4.82          2.54      
 4 S00022          1 AGER_NM_001136         0             0         
 5 S00022          1 AHCYL1_NM_001242674    0.000002      0.00000289
 6 S00022          1 ANP32E_NM_001136479    0             0         
 7 S00022          1 ANXA1_NM_000700        7.76          3.13      
 8 S00022          1 API5_NM_001243747      0.000005      0.00000721
 9 S00022          1 API5_NM_006595        12.8           3.78      
10 S00022          1 APLP2_NM_001142278     0.0806        0.112     
# ℹ 32,390 more rows
…
# Unnest the data
expr_estimates <- expr_log_long_nested |>
  unnest(model_object_tidy) |>
  drop_na(p.value)

# Extract columns of
expr_estimates <- expr_estimates |>
  filter(term == "cluster") |>
  select(gene, p.value, estimate, conf.low, conf.high) |>
  ungroup()

expr_estimates

# A tibble: 400 × 5
   gene                  p.value estimate conf.low conf.high
   <chr>                   <dbl>    <dbl>    <dbl>     <dbl>
 1 ABP1_NM_001091       9.30e- 2   0.899    -0.153     1.95 
 2 ACTL6B_NM_016188     7.49e-19   3.18      2.64      3.73 
 3 ADCYAP1_NM_001099733 6.08e- 8   2.67      1.78      3.55 
 4 AGER_NM_001136       5.77e- 3  -1.43     -2.43     -0.427
 5 AHCYL1_NM_001242674  9.65e- 2  -0.827    -1.81      0.152
 6 ANP32E_NM_001136479  3.30e- 1  -0.456    -1.38      0.469
 7 ANXA1_NM_000700      1.11e-16  -3.81     -4.53     -3.09 
 8 API5_NM_001243747    4.18e- 1  -0.342    -1.18      0.494
 9 API5_NM_006595       7.04e- 1  -0.152    -0.942     0.638
10 APLP2_NM_001142278   8.13e- 1   0.0721   -0.534     0.678
# ℹ 390 more rows
…
